<svg xmlns="http://www.w3.org/2000/svg" xmlns:xlink="http://www.w3.org/1999/xlink">

<symbol id="github" fill-rule="evenodd" clip-rule="evenodd" stroke-linejoin="round" stroke-miterlimit="1.414" viewBox="0 0 16 16">
<path d="M8 0C3.58 0 0 3.582 0 8c0 3.535 2.292 6.533 5.47 7.59.4.075.547-.172.547-.385 0-.19-.007-.693-.01-1.36-2.226.483-2.695-1.073-2.695-1.073-.364-.924-.89-1.17-.89-1.17-.725-.496.056-.486.056-.486.803.056 1.225.824 1.225.824.714 1.223 1.873.87 2.33.665.072-.517.278-.87.507-1.07-1.777-.2-3.644-.888-3.644-3.953 0-.873.31-1.587.823-2.147-.09-.202-.36-1.015.07-2.117 0 0 .67-.215 2.2.82.64-.178 1.32-.266 2-.27.68.004 1.36.092 2 .27 1.52-1.035 2.19-.82 2.19-.82.43 1.102.16 1.915.08 2.117.51.56.82 1.274.82 2.147 0 3.073-1.87 3.75-3.65 3.947.28.24.54.73.54 1.48 0 1.07-.01 1.93-.01 2.19 0 .21.14.46.55.38C13.71 14.53 16 11.53 16 8c0-4.418-3.582-8-8-8"/>
</symbol>

<symbol id="instagram" fill-rule="evenodd" clip-rule="evenodd" stroke-linejoin="round" stroke-miterlimit="1.414" viewBox="0 0 16 16">
<path d="M8 0C5.827 0 5.555.01 4.702.048 3.85.088 3.27.222 2.76.42c-.526.204-.973.478-1.417.923-.445.444-.72.89-.923 1.417-.198.51-.333 1.09-.372 1.942C.008 5.555 0 5.827 0 8s.01 2.445.048 3.298c.04.852.174 1.433.372 1.942.204.526.478.973.923 1.417.444.445.89.72 1.417.923.51.198 1.09.333 1.942.372.853.04 1.125.048 3.298.048s2.445-.01 3.298-.048c.852-.04 1.433-.174 1.942-.372.526-.204.973-.478 1.417-.923.445-.444.72-.89.923-1.417.198-.51.333-1.09.372-1.942.04-.853.048-1.125.048-3.298s-.01-2.445-.048-3.298c-.04-.852-.174-1.433-.372-1.942-.204-.526-.478-.973-.923-1.417-.444-.445-.89-.72-1.417-.923-.51-.198-1.09-.333-1.942-.372C10.445.008 10.173 0 8 0zm0 1.44c2.136 0 2.39.01 3.233.048.78.036 1.203.166 1.485.276.374.145.64.318.92.598.28.28.453.546.598.92.11.282.24.705.276 1.485.038.844.047 1.097.047 3.233s-.01 2.39-.05 3.233c-.04.78-.17 1.203-.28 1.485-.15.374-.32.64-.6.92-.28.28-.55.453-.92.598-.28.11-.71.24-1.49.276-.85.038-1.1.047-3.24.047s-2.39-.01-3.24-.05c-.78-.04-1.21-.17-1.49-.28-.38-.15-.64-.32-.92-.6-.28-.28-.46-.55-.6-.92-.11-.28-.24-.71-.28-1.49-.03-.84-.04-1.1-.04-3.23s.01-2.39.04-3.24c.04-.78.17-1.21.28-1.49.14-.38.32-.64.6-.92.28-.28.54-.46.92-.6.28-.11.7-.24 1.48-.28.85-.03 1.1-.04 3.24-.04zm0 2.452c-2.27 0-4.108 1.84-4.108 4.108 0 2.27 1.84 4.108 4.108 4.108 2.27 0 4.108-1.84 4.108-4.108 0-2.27-1.84-4.108-4.108-4.108zm0 6.775c-1.473 0-2.667-1.194-2.667-2.667 0-1.473 1.194-2.667 2.667-2.667 1.473 0 2.667 1.194 2.667 2.667 0 1.473-1.194 2.667-2.667 2.667zm5.23-6.937c0 .53-.43.96-.96.96s-.96-.43-.96-.96.43-.96.96-.96.96.43.96.96z"/>
</symbol>

<symbol id="rss" fill-rule="evenodd" clip-rule="evenodd" stroke-linejoin="round" stroke-miterlimit="1.414" viewBox="0 0 16 16">
<path d="M12.8 16C12.8 8.978 7.022 3.2 0 3.2V0c8.777 0 16 7.223 16 16h-3.2zM2.194 11.61c1.21 0 2.195.985 2.195 2.196 0 1.21-.99 2.194-2.2 2.194C.98 16 0 15.017 0 13.806c0-1.21.983-2.195 2.194-2.195zM10.606 16h-3.11c0-4.113-3.383-7.497-7.496-7.497v-3.11c5.818 0 10.606 4.79 10.606 10.607z"/>
</symbol>

<symbol id="stackoverflow" class="svg-icon" fill-rule="evenodd" clip-rule="evenodd" stroke-linejoin="round" stroke-miterlimit="1.414" viewBox="0 0 15 16">
<path d="M12.658 14.577v-4.27h1.423V16H1.23v-5.693h1.42v4.27h10.006zm-8.583-1.423h7.16V11.73h-7.16v1.424zm.173-3.235l6.987 1.46.3-1.38L4.55 8.54l-.302 1.38zm.906-3.37l6.47 3.02.602-1.3-6.47-3.02-.602 1.29zm1.81-3.19l5.478 4.57.906-1.08L7.87 2.28l-.9 1.078zM10.502 0L9.338.863l4.27 5.735 1.164-.862L10.5 0z"/>
</symbol>

<symbol id="twitter" fill-rule="evenodd" clip-rule="evenodd" stroke-linejoin="round" stroke-miterlimit="1.414" viewBox="0 0 16 14.5">
<path d="M16 3.038c-.59.26-1.22.437-1.885.517.677-.407 1.198-1.05 1.443-1.816-.634.37-1.337.64-2.085.79-.598-.64-1.45-1.04-2.396-1.04-1.812 0-3.282 1.47-3.282 3.28 0 .26.03.51.085.75-2.728-.13-5.147-1.44-6.766-3.42C.83 2.58.67 3.14.67 3.75c0 1.14.58 2.143 1.46 2.732-.538-.017-1.045-.165-1.487-.41v.04c0 1.59 1.13 2.918 2.633 3.22-.276.074-.566.114-.865.114-.21 0-.41-.02-.61-.058.42 1.304 1.63 2.253 3.07 2.28-1.12.88-2.54 1.404-4.07 1.404-.26 0-.52-.015-.78-.045 1.46.93 3.18 1.474 5.04 1.474 6.04 0 9.34-5 9.34-9.33 0-.14 0-.28-.01-.42.64-.46 1.2-1.04 1.64-1.7z" fill-rule="nonzero"/>
</symbol>

<symbol id="gitlab" fill-rule="evenodd" clip-rule="evenodd" stroke-linejoin="round" stroke-miterlimit="1.414" viewBox="0 0 1792 1792">
<path d="M104 706l792 1015-868-630q-18-13-25-34.5t0-42.5l101-308zm462 0h660l-330 1015zm-198-612l198 612h-462l198-612q8-23 33-23t33 23zm1320 612l101 308q7 21 0 42.5t-25 34.5l-868 630 792-1015zm0 0h-462l198-612q8-23 33-23t33 23z"/>
</symbol>

<symbol id="researchgate" fill-rule="evenodd" clip-rule="evenodd" stroke-linejoin="round" stroke-miterlimit="1.414" viewBox="0 0 32 32">
<path d="M32.04 15.97c0,8.85 -7.18,16.03 -16.02,16.03 -8.85,0 -16.02,-7.18 -16.02,-16.03 0,-8.85 7.17,-16.03 16.02,-16.03 8.84,0 16.02,7.18 16.02,16.03zm-14.79 7c-1.43,-0.28 -2.28,-1.11 -4.45,-4.33 -0.72,-1.08 -0.72,-1.08 -1.42,-1.13 -1.03,-0.07 -0.95,-0.25 -0.92,2.02 0.04,2.58 0.01,2.52 1.5,2.77 0.39,0.06 0.42,0.09 0.42,0.32 0,0.26 0,0.26 -2.62,0.28 -2.46,0.02 -2.62,0.01 -2.67,-0.14 -0.1,-0.29 0.05,-0.43 0.59,-0.53 0.61,-0.11 0.93,-0.36 1.01,-0.78 0.04,-0.16 0.05,-2.32 0.03,-4.8 -0.03,-5.21 0.03,-4.9 -0.93,-5.11 -0.6,-0.13 -0.79,-0.27 -0.71,-0.51 0.06,-0.16 0.19,-0.17 2.92,-0.22 4.06,-0.08 4.82,0.05 5.9,1.01 1.13,1.01 1.29,2.55 0.39,3.84 -0.4,0.58 -1.2,1.2 -1.82,1.43 -0.29,0.11 -0.53,0.23 -0.53,0.27 0,0.12 0.92,1.43 1.49,2.13 1.52,1.85 2.34,2.57 3.19,2.79 0.53,0.14 0.68,0.29 0.53,0.55 -0.16,0.27 -0.96,0.33 -1.9,0.14zm-3.83 -6.63c2,-0.82 2.15,-3.57 0.25,-4.38 -0.49,-0.21 -0.62,-0.22 -1.85,-0.22 -1.33,0 -1.33,0 -1.35,2.31 -0.02,1.27 -0.01,2.37 0.02,2.43 0.09,0.21 2.34,0.1 2.93,-0.14zm6.97 -2.85c-1.55,-0.29 -2.06,-1.24 -1.98,-3.68 0.04,-1.35 0.15,-1.72 0.67,-2.28 0.92,-0.99 3.2,-0.9 4.04,0.16 0.36,0.45 0.33,0.59 -0.17,0.74 -0.39,0.13 -0.39,0.13 -0.75,-0.23 -0.85,-0.82 -2.32,-0.52 -2.58,0.54 -0.13,0.47 -0.12,2.46 0.01,2.91 0.35,1.27 2.46,1.27 2.82,0 0.22,-0.81 0.17,-0.87 -0.8,-0.92 -0.47,-0.02 -0.47,-0.02 -0.47,-0.41 0,-0.38 0,-0.38 1.12,-0.41 1.45,-0.03 1.43,-0.05 1.36,1.01 -0.09,1.33 -0.45,1.97 -1.32,2.35 -0.57,0.24 -1.35,0.33 -1.95,0.22z"/>
</symbol>

<symbol id="scholar" fill-rule="evenodd" clip-rule="evenodd" stroke-linejoin="round" stroke-miterlimit="1.414" viewBox="3 3 44 44">
<path d="M 25 3 C 12.85 3 3 12.85 3 25 C 3 37.15 12.85 47 25 47 C 37.15 47 47 37.15 47 25 C 47 12.85 37.15 3 25 3 z M 21 11 L 38 11 L 36.980469 11.880859 C 36.980469 11.920859 37 11.96 37 12 L 37 17.279297 C 37.6 17.619297 38 18.26 38 19 L 38 25 C 38 26.1 37.1 27 36 27 C 34.9 27 34 26.1 34 25 L 34 19 C 34 18.26 34.4 17.619297 35 17.279297 L 35 13.570312 L 31.410156 16.650391 C 31.760156 17.350391 32 18.200234 32 19.240234 C 32 21.960234 30.480703 23.309766 28.970703 24.509766 C 28.500703 24.989766 27.949219 25.510312 27.949219 26.320312 C 27.949219 27.120313 28.500391 27.570625 28.900391 27.890625 L 30.189453 28.919922 C 31.779453 30.279922 33.220703 31.530547 33.220703 34.060547 C 33.220703 37.510547 29.930469 41 23.730469 41 C 18.500469 41 15.980469 38.47 15.980469 35.75 C 15.980469 34.43 16.629766 32.559531 18.759766 31.269531 C 20.989766 29.879531 24.020391 29.690078 25.650391 29.580078 C 25.140391 28.920078 24.560547 28.230078 24.560547 27.080078 C 24.560547 26.470078 24.749687 26.100391 24.929688 25.650391 C 24.529688 25.690391 24.129531 25.730469 23.769531 25.730469 C 19.969531 25.730469 17.799297 22.85 17.779297 20 L 11 20 L 21 11 z M 24.269531 14.240234 C 23.339531 14.240234 22.33 14.710938 21.75 15.460938 C 21.14 16.220938 20.949219 17.210156 20.949219 18.160156 C 20.949219 20.620156 22.370938 24.699219 25.460938 24.699219 C 26.370938 24.699219 27.339922 24.259922 27.919922 23.669922 C 28.739922 22.819922 28.820312 21.65 28.820312 21 C 28.820312 18.35 27.269531 14.240234 24.269531 14.240234 z M 26.039062 30.609375 C 25.719062 30.609375 23.769766 30.679219 22.259766 31.199219 C 21.459766 31.499219 19.160156 32.370469 19.160156 34.980469 C 19.160156 37.590469 21.64 39.460938 25.5 39.460938 C 28.97 39.460938 30.800781 37.760234 30.800781 35.490234 C 30.800781 33.620234 29.620859 32.630391 26.880859 30.650391 C 26.590859 30.610391 26.409063 30.609375 26.039062 30.609375 z"/>
</symbol>

<symbol id="orcid" fill-rule="evenodd" clip-rule="evenodd" stroke-linejoin="round" stroke-miterlimit="1.414" viewBox="0 0 256 256">
<path d="M256,128c0,70.7-57.3,128-128,128C57.3,256,0,198.7,0,128C0,57.3,57.3,0,128,0C198.7,0,256,57.3,256,128z
M108.9,79.1h41.6c39.6,0,57,28.3,57,53.6c0,27.5-21.5,53.6-56.8,53.6h-41.8V79.1z M124.3,172.4h24.5   c34.9,0,42.9-26.5,42.9-39.7c0-21.5-13.7-39.7-43.7-39.7h-23.7V172.4z
M88.7,56.8c0,5.5-4.5,10.1-10.1,10.1c-5.6,0-10.1-4.6-10.1-10.1c0-5.6,4.5-10.1,10.1-10.1   C84.2,46.7,88.7,51.3,88.7,56.8z
M86.3,186.2H70.9V79.1h15.4v48.4V186.2z"/>
</symbol>

</svg>
